<?xml version="1.0" encoding="utf-8"?>
<!-- Generator: Adobe Illustrator 18.1.1, SVG Export Plug-In . SVG Version: 6.00 Build 0)  -->
<!DOCTYPE svg PUBLIC "-//W3C//DTD SVG 1.1//EN" "http://www.w3.org/Graphics/SVG/1.1/DTD/svg11.dtd">
<svg version="1.1" id="Layer_1" xmlns="http://www.w3.org/2000/svg" xmlns:xlink="http://www.w3.org/1999/xlink" x="0px" y="0px"
	 viewBox="0 3272.3 2282.1 2339.5" enable-background="new 0 3272.3 2282.1 2339.5" xml:space="preserve">
<g>
	<path fill="#FFFFFF" d="M1415.9,3806.4c-22.9-9.5-49.3-4.2-67,13.5L977,4194.2H690.5c-34.1,0-61.5,27.5-61.5,61.5v444.1
		c0,34,27.4,61.5,61.5,61.5h285.1l373.5,374.3c11.8,11.8,27.6,18.1,43.5,18.1c7.8,0,16-1.5,23.5-4.7c23.1-9.5,38-32,38-56.8v-1229
		C1454.1,3838.4,1439,3815.9,1415.9,3806.4z"/>
</g>
</svg>
