<?xml version="1.0" encoding="utf-8"?>
<!-- Generator: Adobe Illustrator 18.1.1, SVG Export Plug-In . SVG Version: 6.00 Build 0)  -->
<!DOCTYPE svg PUBLIC "-//W3C//DTD SVG 1.1//EN" "http://www.w3.org/Graphics/SVG/1.1/DTD/svg11.dtd">
<svg version="1.1" id="Layer_1" xmlns="http://www.w3.org/2000/svg" xmlns:xlink="http://www.w3.org/1999/xlink" x="0px" y="0px"
	 viewBox="248.5 3734.2 2603.5 2483.5" enable-background="new 248.5 3734.2 2603.5 2483.5" xml:space="preserve">
<g id="pause">
	<path fill="#FFFFFF" d="M934.9,5785.5h463V4165h-463V5785.5z M1786.1,4165v1620.5h463V4165H1786.1z"/>
</g>
</svg>
