<?xml version="1.0" encoding="utf-8"?>
<!-- Generator: Adobe Illustrator 18.1.1, SVG Export Plug-In . SVG Version: 6.00 Build 0)  -->
<!DOCTYPE svg PUBLIC "-//W3C//DTD SVG 1.1//EN" "http://www.w3.org/Graphics/SVG/1.1/DTD/svg11.dtd">
<svg version="1.1" id="Layer_1" xmlns="http://www.w3.org/2000/svg" xmlns:xlink="http://www.w3.org/1999/xlink" x="0px" y="0px"
	 viewBox="632.5 3704.2 2171.6 2375.5" enable-background="new 632.5 3704.2 2171.6 2375.5" xml:space="preserve">
<g id="play-arrow">
	<polygon points="1005.2,3845.2 1005.2,5964 2670.1,4904.6 	"/>
</g>
<g>
	<path fill="#FFFFFF" d="M1294.2,4990.5c-3.2,2.1-9.5,3.7-18.2,4c0.8,25.1,6.9,39.3,19.3,42.2c15.3,4,34.9-22.5,44-46.9h0.3
		c6.9-2.6,12.4,2.6,7.9,13.8c-13.5,33.5-40.1,65.7-76.3,52.7c-20-6.9-33-27.7-37.5-61.5c-18.5-0.8-37.8-2.1-53.8-3.2
		c-8.4,64.7-29.8,80.3-53,65.7c0,0,2.1-5.5,4-17.7c2.1-16.1,3.7-33,5.5-50.4c-13.1,0-19,1.5-19,1.5c-11.9-10.9-4.4-30.9,20.3-28.3
		h0.8c5.5-76.7,8.4-154.9,27.2-177.8c26.1-31.6,59.3-9.5,59.3,5.8c0,0-28,12.7-42.2,174.1c16.7,0,33.8-1.1,49.8-2.9
		c0.8-11.9,1.5-24.3,3.7-38.5c11.3-77,33.8-129,47.5-148.6c23.7-33,54.1,5.8,54.1,5.8s-32.7,35.3-53.8,140.3
		c-2.6,12.4-4.4,23.7-5.8,34.1c9.8-2.1,17.7-4.4,24-6.9C1302.6,4947.7,1315.7,4976,1294.2,4990.5z"/>
	<path fill="#FFFFFF" d="M1389.1,5033.5c9.5,2.6,24.8-17.4,37-59.6c0.3-11.3,1.8-23.7,4-37.5c8.4-53,41.7-58.1,62.8-36.7
		c0,0-15.6,31.2-22.9,71.2c-6.6,32.4-5,65.1,6.9,66.5c11.6,1.1,26.1-20.8,35.6-46.9h0.3c6.6-2.1,12.4,2.6,7.9,14.2
		c-16.1,40.4-43.3,62.2-66.8,52.7c-15.6-5.8-26.1-22.9-28-54.6c-8.7,24-28.3,59.3-55.6,56c-30.1-3.7-37.5-41.4-24.8-90.8
		c14.2-55.2,7.9-69.7,7.9-69.7c48-16.1,53.8,9.8,38.5,64.4C1380.4,5005.8,1378.6,5030.6,1389.1,5033.5z"/>
	<path fill="#FFFFFF" d="M1564.3,4933.8c8.4-19.6,24-40.1,47.2-43c30.1-3.7,47.2,28,35.3,78.4c-15.3,66.8-68,93.4-93.1,87.9
		c-22.2-4.7-38.2-25.8-38.5-56.7c-0.3-58.1,12.4-166.8,34.1-197.7c23.2-32.7,56,5.8,56,5.8S1580.7,4840.1,1564.3,4933.8z
		 M1556.7,4985.8c-2.9,27.2-4,52,5.8,53.8c10.9,1.8,29.5-26.1,37.5-61.5c7.3-30.1,6.9-60.4-4.4-61.8
		C1584.6,4915.3,1566.5,4941.5,1556.7,4985.8z"/>
	<path fill="#FFFFFF" d="M1957.5,4911c-10.2,100.7-96.6,162-190.5,158.5c-54.9-2.1-100-32.4-91.9-71.2c5.8-30.9,47.2-45.9,78.9-39.6
		c6.9-75.2,8.4-128,10.2-164.3c-33.8,8.7-62.8,28-71.2,56.3c-10.9,37.8,29.5,51.7,52.3,42.2c0,0,9.8,47.5-31.2,46.9
		c-38.8-0.8-68-41.7-50.9-87.3c15.6-42.5,57-69.7,102.9-82.6c1.8-20.8,5.5-34.5,12.4-43.3c11.6-14.5,28.3-16.4,39.3-11.9
		c11.9,5,15.3,17.1,14.8,17.4c-2.9,6.9-6.1,15.6-9.8,29.8h0.3C1902.3,4762,1968.1,4805.6,1957.5,4911z M1751.1,4986.3
		c-19-9.8-42.2-6.6-45.9,15.6c-5.5,32,37,50.4,68.3,51.2c63.3,1.8,120-52.7,129-133.3c9.5-85.8-21.4-127.5-85.8-130.9
		c-6.6,34.9-13.1,90.5-16.4,182.4c-2.1,61.5-22.5,78.9-55.6,58.6c0,0,2.1-5.5,3.7-17.7L1751.1,4986.3z"/>
	<path fill="#FFFFFF" d="M2010.3,5033.5c9.8,2.9,25.8-18.5,37.8-62.8c0-17.1,1.5-35.6,5-56c8.4-52.7,41.4-57.8,62.5-36.7
		c0,0-17.1,53-24.3,93.1c-6.6,32.4-5,65.1,6.9,66.5c11.6,1.1,26.1-20.8,35.6-46.9h0.3c6.6-2.1,12.4,2.6,7.9,14.2
		c-16.1,40.4-43.3,62.2-66.8,52.7c-13.8-5-23.7-27.2-26.1-59.9c-7.6,24-28.3,65.1-57.5,61.5c-30.1-3.7-37.5-41.4-24.8-90.8
		c14.2-55.2,7.9-69.7,7.9-69.7c48-16.1,53.8,9.8,38.5,64.4C2001.5,5005.8,1999.7,5030.6,2010.3,5033.5z"/>
	<path fill="#FFFFFF" d="M2185.5,4933.8c8.4-19.6,24-40.1,47.2-43c30.1-3.7,47.2,28,35.3,78.4c-15.3,66.8-68,93.4-93.1,87.9
		c-22.2-4.7-38.2-25.8-38.5-56.7c-0.3-58.1,12.4-166.8,34.1-197.7c23.2-32.7,56,5.8,56,5.8S2201.8,4840.1,2185.5,4933.8z
		 M2177.8,4985.8c-2.9,27.2-4,52,5.8,53.8c10.9,1.8,29.5-26.1,37.5-61.5c7.3-30.1,6.9-60.4-4.4-61.8
		C2205.8,4915.3,2187.6,4941.5,2177.8,4985.8z"/>
</g>
</svg>
