<?xml version="1.0" encoding="utf-8"?>
<!-- Generator: Adobe Illustrator 18.1.1, SVG Export Plug-In . SVG Version: 6.00 Build 0)  -->
<!DOCTYPE svg PUBLIC "-//W3C//DTD SVG 1.1//EN" "http://www.w3.org/Graphics/SVG/1.1/DTD/svg11.dtd">
<svg version="1.1" id="Layer_1" xmlns="http://www.w3.org/2000/svg" xmlns:xlink="http://www.w3.org/1999/xlink" x="0px" y="0px"
	 viewBox="0 3272.3 2282.1 2339.5" enable-background="new 0 3272.3 2282.1 2339.5" xml:space="preserve">
<g>
	<path fill="#000000" d="M1080,3806.4c-22.9-9.5-49.3-4.2-67,13.5l-371.9,374.3H354.6c-34.1,0-61.5,27.5-61.5,61.5v444.1
		c0,34,27.4,61.5,61.5,61.5h285.1l373.5,374.3c11.8,11.8,27.6,18.1,43.5,18.1c7.8,0,16-1.5,23.5-4.7c23.1-9.5,38-32,38-56.8v-1229
		C1118.2,3838.4,1103.1,3815.9,1080,3806.4z"/>
	<path fill="#000000" d="M1720.4,4476.1c0-230.6-137-438.2-349.1-529.2c-31.2-13.4-67.5,1.1-80.8,32.4c-13.4,31.2,1,67.4,32.3,80.8
		c167.1,71.6,274.7,234.9,274.7,416.1c0,180.4-107.2,343.4-273.3,415c-31.1,13.5-45.6,49.7-32.2,80.8c10,23.3,32.7,37.2,56.7,37.2
		c8,0,16.3-1.6,24.3-5.1C1584.1,4913,1720.4,4705.8,1720.4,4476.1z"/>
	<path fill="#000000" d="M1475.8,3703.4c-31.2-13.5-67.6,1-80.8,32.3c-13.5,31.2,1,67.4,32.3,80.8
		c264.4,113.5,435.1,372.4,435.1,659.8c0,286.4-170.1,544.8-433.7,658.4c-31.2,13.5-45.7,49.6-32.4,80.8
		c10.1,23.3,32.7,37.2,56.5,37.2c8.2,0,16.6-1.6,24.6-5.1c308.6-133,508.1-435.9,508.1-771.4
		C1985.6,4139.6,1785.6,3836.2,1475.8,3703.4z"/>
</g>
</svg>
