<?xml version="1.0" encoding="utf-8"?>
<!-- Generator: Adobe Illustrator 18.1.1, SVG Export Plug-In . SVG Version: 6.00 Build 0)  -->
<!DOCTYPE svg PUBLIC "-//W3C//DTD SVG 1.1//EN" "http://www.w3.org/Graphics/SVG/1.1/DTD/svg11.dtd">
<svg version="1.1" id="Layer_1" xmlns="http://www.w3.org/2000/svg" xmlns:xlink="http://www.w3.org/1999/xlink" x="0px" y="0px"
	 viewBox="291.4 3775.6 2497 2377" enable-background="new 291.4 3775.6 2497 2377" xml:space="preserve">
<path fill="#000000" d="M1262.4,5109.8l-435.1,435.1v-311.1H621.2v663h663v-206.2H973.1l435.1-435.1L1262.4,5109.8z"/>
<path fill="#000000" d="M2333.4,5544.7l-435.1-435.1l-145.8,145.8l435.1,435.1h-311.1v206.2h663v-663h-206.2v310.9H2333.4z"/>
<path fill="#000000" d="M1876.5,4005.7v206.1h311.1l-435.1,435.1l145.8,145.8l435.1-435.1v311.1h206.2v-663H1876.5z"/>
<path fill="#000000" d="M1284.2,4211.9v-206.2h-663v663h206.1v-311.1l435.1,435.1l145.8-145.8l-435.1-434.9H1284.2z"/>
</svg>
