<?xml version="1.0" encoding="utf-8"?>
<!-- Generator: Adobe Illustrator 18.1.1, SVG Export Plug-In . SVG Version: 6.00 Build 0)  -->
<!DOCTYPE svg PUBLIC "-//W3C//DTD SVG 1.1//EN" "http://www.w3.org/Graphics/SVG/1.1/DTD/svg11.dtd">
<svg version="1.1" id="Layer_1" xmlns="http://www.w3.org/2000/svg" xmlns:xlink="http://www.w3.org/1999/xlink" x="0px" y="0px"
	 viewBox="0 3272.3 2282.1 2339.5" enable-background="new 0 3272.3 2282.1 2339.5" xml:space="preserve">
<g id="replay">
	<path fill="#000000" d="M1141.1,3929v-342l-427.5,427.5l427.5,427.5v-342c282.2,0,513,230.9,513,513c0,282.2-230.9,513-513,513
		s-513-230.9-513-513H457c0,376.2,307.8,684,684,684s684-307.8,684-684S1517.3,3929,1141.1,3929z"/>
</g>
</svg>
